module gitlab.com/snarksliveshere/grpc-boilerplate

go 1.16

require (
	github.com/go-chi/chi v1.5.4
	github.com/go-chi/cors v1.2.0
	github.com/grpc-ecosystem/grpc-gateway/v2 v2.6.0
	github.com/pkg/errors v0.9.1
	github.com/prometheus/client_golang v1.11.0
	github.com/prometheus/common v0.26.0
	google.golang.org/genproto v0.0.0-20210903162649-d08c68adba83
	google.golang.org/grpc v1.40.0
	google.golang.org/protobuf v1.27.1
)
