{
  "swagger": "2.0",
  "info": {
    "title": "admin/v1/gateway.proto",
    "version": "1.0"
  },
  "tags": [
    {
      "name": "UserService"
    }
  ],
  "schemes": [
    "https"
  ],
  "consumes": [
    "application/json"
  ],
  "produces": [
    "application/json"
  ],
  "paths": {
    "/api/v1/users": {
      "get": {
        "summary": "List users",
        "description": "List all users on the server.",
        "operationId": "UserService_ListUsers",
        "responses": {
          "200": {
            "description": "A successful response.",
            "schema": {
              "$ref": "#/definitions/v1ListUsersResponse"
            }
          },
          "default": {
            "description": "An unexpected error response.",
            "schema": {
              "$ref": "#/definitions/rpcStatus"
            }
          }
        },
        "tags": [
          "Users"
        ]
      },
      "post": {
        "summary": "Add a user",
        "description": "Add a user to the server.",
        "operationId": "UserService_AddUser",
        "responses": {
          "200": {
            "description": "A successful response.",
            "schema": {
              "$ref": "#/definitions/v1AddUserResponse"
            }
          },
          "default": {
            "description": "An unexpected error response.",
            "schema": {
              "$ref": "#/definitions/rpcStatus"
            }
          }
        },
        "parameters": [
          {
            "name": "body",
            "in": "body",
            "required": true,
            "schema": {
              "$ref": "#/definitions/v1AddUserRequest"
            }
          }
        ],
        "tags": [
          "Users"
        ]
      }
    }
  },
  "definitions": {
    "protobufAny": {
      "type": "object",
      "properties": {
        "@type": {
          "type": "string"
        }
      },
      "additionalProperties": {}
    },
    "rpcStatus": {
      "type": "object",
      "properties": {
        "code": {
          "type": "integer",
          "format": "int32"
        },
        "message": {
          "type": "string"
        },
        "details": {
          "type": "array",
          "items": {
            "$ref": "#/definitions/protobufAny"
          }
        }
      }
    },
    "v1AddUserRequest": {
      "type": "object"
    },
    "v1AddUserResponse": {
      "type": "object",
      "properties": {
        "id": {
          "type": "string"
        }
      }
    },
    "v1ListUsersResponse": {
      "type": "object",
      "properties": {
        "id": {
          "type": "string"
        }
      }
    }
  },
  "externalDocs": {
    "description": "gRPC-gateway boilerplate repository admin",
    "url": "https://external.com/admin"
  }
}
