{
  "swagger": "2.0",
  "info": {
    "title": "logger/v1/logger.proto",
    "version": "1.0"
  },
  "tags": [
    {
      "name": "LoggerStoreService"
    }
  ],
  "schemes": [
    "https"
  ],
  "consumes": [
    "application/json"
  ],
  "produces": [
    "application/json"
  ],
  "paths": {
    "/api/v1/logger": {
      "delete": {
        "summary": "delete logger",
        "description": "delete logger descr",
        "operationId": "LoggerStoreService_DeleteLogger",
        "responses": {
          "200": {
            "description": "A successful response.",
            "schema": {
              "$ref": "#/definitions/v1DeleteLoggerResponse"
            }
          },
          "default": {
            "description": "An unexpected error response.",
            "schema": {
              "$ref": "#/definitions/rpcStatus"
            }
          }
        },
        "parameters": [
          {
            "name": "petId",
            "in": "query",
            "required": false,
            "type": "string"
          }
        ],
        "tags": [
          "logger"
        ]
      },
      "post": {
        "summary": "get logger",
        "description": "get logger descr",
        "operationId": "LoggerStoreService_GetLogger",
        "responses": {
          "200": {
            "description": "A successful response.",
            "schema": {
              "$ref": "#/definitions/v1GetLoggerResponse"
            }
          },
          "default": {
            "description": "An unexpected error response.",
            "schema": {
              "$ref": "#/definitions/rpcStatus"
            }
          }
        },
        "parameters": [
          {
            "name": "body",
            "in": "body",
            "required": true,
            "schema": {
              "$ref": "#/definitions/v1GetLoggerRequest"
            }
          }
        ],
        "tags": [
          "logger"
        ]
      },
      "put": {
        "summary": "put logger",
        "description": "put logger descr",
        "operationId": "LoggerStoreService_PutLogger",
        "responses": {
          "200": {
            "description": "A successful response.",
            "schema": {
              "$ref": "#/definitions/v1PutLoggerResponse"
            }
          },
          "default": {
            "description": "An unexpected error response.",
            "schema": {
              "$ref": "#/definitions/rpcStatus"
            }
          }
        },
        "tags": [
          "logger"
        ]
      }
    }
  },
  "definitions": {
    "protobufAny": {
      "type": "object",
      "properties": {
        "@type": {
          "type": "string"
        }
      },
      "additionalProperties": {}
    },
    "rpcStatus": {
      "type": "object",
      "properties": {
        "code": {
          "type": "integer",
          "format": "int32"
        },
        "message": {
          "type": "string"
        },
        "details": {
          "type": "array",
          "items": {
            "$ref": "#/definitions/protobufAny"
          }
        }
      }
    },
    "typeDateTime": {
      "type": "object",
      "properties": {
        "year": {
          "type": "integer",
          "format": "int32",
          "description": "Optional. Year of date. Must be from 1 to 9999, or 0 if specifying a\ndatetime without a year."
        },
        "month": {
          "type": "integer",
          "format": "int32",
          "description": "Required. Month of year. Must be from 1 to 12."
        },
        "day": {
          "type": "integer",
          "format": "int32",
          "description": "Required. Day of month. Must be from 1 to 31 and valid for the year and\nmonth."
        },
        "hours": {
          "type": "integer",
          "format": "int32",
          "description": "Required. Hours of day in 24 hour format. Should be from 0 to 23. An API\nmay choose to allow the value \"24:00:00\" for scenarios like business\nclosing time."
        },
        "minutes": {
          "type": "integer",
          "format": "int32",
          "description": "Required. Minutes of hour of day. Must be from 0 to 59."
        },
        "seconds": {
          "type": "integer",
          "format": "int32",
          "description": "Required. Seconds of minutes of the time. Must normally be from 0 to 59. An\nAPI may allow the value 60 if it allows leap-seconds."
        },
        "nanos": {
          "type": "integer",
          "format": "int32",
          "description": "Required. Fractions of seconds in nanoseconds. Must be from 0 to\n999,999,999."
        },
        "utcOffset": {
          "type": "string",
          "description": "UTC offset. Must be whole seconds, between -18 hours and +18 hours.\nFor example, a UTC offset of -4:00 would be represented as\n{ seconds: -14400 }."
        },
        "timeZone": {
          "$ref": "#/definitions/typeTimeZone",
          "description": "Time zone."
        }
      },
      "description": "Represents civil time (or occasionally physical time).\n\nThis type can represent a civil time in one of a few possible ways:\n\n * When utc_offset is set and time_zone is unset: a civil time on a calendar\n   day with a particular offset from UTC.\n * When time_zone is set and utc_offset is unset: a civil time on a calendar\n   day in a particular time zone.\n * When neither time_zone nor utc_offset is set: a civil time on a calendar\n   day in local time.\n\nThe date is relative to the Proleptic Gregorian Calendar.\n\nIf year is 0, the DateTime is considered not to have a specific year. month\nand day must have valid, non-zero values.\n\nThis type may also be used to represent a physical time if all the date and\ntime fields are set and either case of the `time_offset` oneof is set.\nConsider using `Timestamp` message for physical time instead. If your use\ncase also would like to store the user's timezone, that can be done in\nanother field.\n\nThis type is more flexible than some applications may want. Make sure to\ndocument and validate your application's limitations."
    },
    "typeMoney": {
      "type": "object",
      "properties": {
        "currencyCode": {
          "type": "string",
          "description": "The three-letter currency code defined in ISO 4217."
        },
        "units": {
          "type": "string",
          "format": "int64",
          "description": "The whole units of the amount.\nFor example if `currencyCode` is `\"USD\"`, then 1 unit is one US dollar."
        },
        "nanos": {
          "type": "integer",
          "format": "int32",
          "description": "Number of nano (10^-9) units of the amount.\nThe value must be between -999,999,999 and +999,999,999 inclusive.\nIf `units` is positive, `nanos` must be positive or zero.\nIf `units` is zero, `nanos` can be positive, zero, or negative.\nIf `units` is negative, `nanos` must be negative or zero.\nFor example $-1.75 is represented as `units`=-1 and `nanos`=-750,000,000."
        }
      },
      "description": "Represents an amount of money with its currency type."
    },
    "typeTimeZone": {
      "type": "object",
      "properties": {
        "id": {
          "type": "string",
          "description": "IANA Time Zone Database time zone, e.g. \"America/New_York\"."
        },
        "version": {
          "type": "string",
          "description": "Optional. IANA Time Zone Database version number, e.g. \"2019a\"."
        }
      },
      "description": "Represents a time zone from the\n[IANA Time Zone Database](https://www.iana.org/time-zones)."
    },
    "v1DeleteLoggerResponse": {
      "type": "object",
      "properties": {
        "order": {
          "$ref": "#/definitions/v1Order"
        }
      }
    },
    "v1GetLoggerRequest": {
      "type": "object",
      "properties": {
        "petId": {
          "type": "string"
        }
      }
    },
    "v1GetLoggerResponse": {
      "type": "object",
      "properties": {
        "pet": {
          "$ref": "#/definitions/v1Logger"
        }
      }
    },
    "v1Logger": {
      "type": "object",
      "properties": {
        "petType": {
          "$ref": "#/definitions/v1LoggerType"
        },
        "petId": {
          "type": "string"
        },
        "name": {
          "type": "string"
        },
        "createdAt": {
          "$ref": "#/definitions/typeDateTime"
        }
      },
      "description": "Logger represents a pet in the pet store."
    },
    "v1LoggerType": {
      "type": "string",
      "enum": [
        "LOGGER_TYPE_UNSPECIFIED",
        "LOGGER_TYPE_CAT",
        "LOGGER_TYPE_DOG",
        "LOGGER_TYPE_SNAKE",
        "LOGGER_TYPE_HAMSTER"
      ],
      "default": "LOGGER_TYPE_UNSPECIFIED",
      "description": "LoggerType represents the different types of pets in the pet store."
    },
    "v1Order": {
      "type": "object",
      "properties": {
        "orderId": {
          "type": "string"
        },
        "recipientId": {
          "type": "string"
        },
        "amount": {
          "$ref": "#/definitions/typeMoney"
        },
        "paymentProvider": {
          "$ref": "#/definitions/v1PaymentProvider"
        }
      },
      "description": "Order represents a monetary order."
    },
    "v1PaymentProvider": {
      "type": "string",
      "enum": [
        "PAYMENT_PROVIDER_UNSPECIFIED",
        "PAYMENT_PROVIDER_STRIPE",
        "PAYMENT_PROVIDER_PAYPAL",
        "PAYMENT_PROVIDER_APPLE"
      ],
      "default": "PAYMENT_PROVIDER_UNSPECIFIED",
      "description": "PaymentProvider represents the supported set\nof payment providers."
    },
    "v1PutLoggerResponse": {
      "type": "object",
      "properties": {
        "pet": {
          "$ref": "#/definitions/v1Logger"
        }
      }
    }
  },
  "externalDocs": {
    "description": "gRPC-gateway boilerplate repository logger",
    "url": "https://external/logger"
  }
}
